{
  "type": "service_account",
  "project_id": "superpanel-74812",
  "private_key_id": "0cf086f8cf6097149a4c9745caa8c5fa6926f675",
  "private_key": "-----BEGIN PRIVATE KEY-----\nMIIEvwIBADANBgkqhkiG9w0BAQEFAASCBKkwggSlAgEAAoIBAQC7IjlImJFUjDCS\nu9a4TOlexp3y9yf9va4gNvigSISK1vdUihXKknCaDFrR367FzzCkCgeyFSc7iJt8\nAzb6tQG2aUWXMN0ifBrYQ8t2WWh9oEPFdeyPr6yil/0FMhDJ136EHcFyN3J7BRkw\ndKgfxUhvYwj1lHq2Oc+Gv+aGW3vPZeUIL+Nx0enap4STHUMcCbOGlIswHUcVqU06\ndGmA5HH4+sC89NJR44bYKKO4I/J9t2vt9o3s26upka7qAHCuoFQ2UCH+cUXoR+L/\nR3uVUkZ/au6LuViMFO8Adt1MhOci8HFFV1o6gW225zwc4FNi3MQtQRs8ptIoNpES\nVIhVPPwXAgMBAAECggEAHBDM8JNZMIn5+vfLA0cdtQYqyDbDO64IAHLeJQPbRQtq\nerZfAEuoMaJquJFIoAgr7l5GuzGq+aXKU/YTd9RP1nDBbCR69eIREKBSUoSkRDsW\nDvZZrU8WoCgVXYMdu3fjVKM10RB5zfN8zKSiVml7LKF4xYQoR04yTq5XP41W60rG\nDHwdOiX214OiAF/b/emSfLb71920PWTXaAI8bzq1Ul1amiKo+fLBaQ+mccaPXgMH\nsdsN2yhVqFo3A9LISl+sp1pMJZ7666LBzoQf/MNy0g6LX8mgY5P4iyYtdD6YsObn\nDtY5QmMWEQ/sR0d97VrXo5DH+qjpF0MHDSjlk79BCQKBgQDszco9aWKmrywHz/gB\nT3VSDkQfnMqQPzUYOWMmbZDfBFPP7aQx/dd7o6p8pGF0rCa01Z4ppg4bZ6GektC0\nndsyFZDasYWahmQdHHnPPd9Kc4z/VKKSMppr9+ymM6kz86sr+LUQs1M7JS8Hstst\n7NAsUfrrHmPxySANzG6tF6KKCwKBgQDKTaqZIjbtLn3EEwfDnYA8vQ/Jf7+vcDKa\nnG/6PZF+327+/ec+aGvoTxwNdqdmi5IucB/uznE8ylCNaNMP7XQUUrrCeJ8U+veA\n/SMWxBK0pI+8KFjmP/HZPYysf6hxvuU3Zd1UX4EdO/PQUQXEG4V++PsjFYNLDH62\nUS1HmULppQKBgQDO0iG7p0pxGHeVTy9lPZfTFgCrt443k+z0flK5omIwViA5b23D\n99d29ggWGp+/fgfEUvpzl8Okbct7qvC7f0+Nm8ZLK1bsEkpoHpHIzloyNV/FNY9T\nrvyuJfg7ZM14QW6T1gGWV3jvJFfCGpVRtA5RVzyWk5FpAGeNhap4ZTch5wKBgQCc\nQO7Chm28NkuHdVdq3KzevPyDmvs4C0Xaq3fF5WYKg5McuomwZ0DpVqkJMRtNFgJb\ngdj4P1WxKWacQlm7FKGyzM9ZQ4dD0i/23g4LGHiGNBCcuOEpPjyTmXmdBqDY8iPi\n7PfNolJ8fQDtZpc4iDVNBAwdZhFZlxYLxZlekt7ezQKBgQDa46237ToVHK1hEtUe\nzcEYXBRifw63ZArS66JV0hvPcnmV3tKmYyO2gG4VLmziZ/NLLOny3f/eLV796iU6\nryqIKzUfdPu3GyWdxu/sNyzc6TVRZ5fGqwdOa/Cg31yqEZ2RP2l33g2DuknZMj7P\n8J3Sw1bEjOwpdUyW2lyj+eRX/A==\n-----END PRIVATE KEY-----\n",
  "client_email": "firebase-adminsdk-du0zs@superpanel-74812.iam.gserviceaccount.com",
  "client_id": "100958043595746674000",
  "auth_uri": "https://accounts.google.com/o/oauth2/auth",
  "token_uri": "https://oauth2.googleapis.com/token",
  "auth_provider_x509_cert_url": "https://www.googleapis.com/oauth2/v1/certs",
  "client_x509_cert_url": "https://www.googleapis.com/robot/v1/metadata/x509/firebase-adminsdk-du0zs%40superpanel-74812.iam.gserviceaccount.com"
}
